{
	"info": {
		"_postman_id": "82fe5b8f-8a83-499b-b464-f6261d84849c",
		"name": "NumberConversionSOAP",
		"description": "The Number Conversion Web Service, implemented with Visual DataFlex, provides functions that convert numbers into words or dollar amounts.\n",
		"schema": "https://schema.getpostman.com/json/collection/v2.1.0/collection.json",
		"_exporter_id": "25704940",
		"_collection_link": "https://interstellar-sunset-546559.postman.co/workspace/API_Workspace~9b1c5a9c-73e1-48e3-b16b-d9cbeba916ac/collection/25704940-82fe5b8f-8a83-499b-b464-f6261d84849c?action=share&source=collection_link&creator=25704940"
	},
	"item": [
		{
			"name": "NumberConversionSoap",
			"item": [
				{
					"name": "NumberToWords 3 digit",
					"event": [
						{
							"listen": "test",
							"script": {
								"exec": [
									"//status code validation\r",
									"pm.test(\"Status code is 200\", function () {\r",
									"    pm.response.to.have.status(200);\r",
									"});\r",
									"\r",
									"//extract the response body\r",
									"var responseBody = pm.response.text();\r",
									"console.log(responseBody);\r",
									"\r",
									"//validate response body\r",
									"pm.test(\"validate response body\", function(){\r",
									"pm.expect(responseBody).to.include(\"<m:NumberToWordsResult>one hundred </m:NumberToWordsResult>\");\r",
									"});\r",
									""
								],
								"type": "text/javascript"
							}
						}
					],
					"request": {
						"method": "POST",
						"header": [
							{
								"key": "Content-Type",
								"value": "text/xml; charset=utf-8"
							}
						],
						"body": {
							"mode": "raw",
							"raw": "<soap:Envelope xmlns:soap=\"http://schemas.xmlsoap.org/soap/envelope/\">\n  <soap:Body>\n    <NumberToWords xmlns=\"http://www.dataaccess.com/webservicesserver/\">\n      <ubiNum>100</ubiNum>\n    </NumberToWords>\n  </soap:Body>\n</soap:Envelope>",
							"options": {
								"raw": {
									"language": "xml"
								}
							}
						},
						"url": {
							"raw": "{{NumberConversionSoapBaseUrl}}/webservicesserver/NumberConversion.wso",
							"host": [
								"{{NumberConversionSoapBaseUrl}}"
							],
							"path": [
								"webservicesserver",
								"NumberConversion.wso"
							]
						},
						"description": "Returns the word corresponding to the positive number passed as parameter. Limited to quadrillions."
					},
					"response": []
				},
				{
					"name": "NumberToWords 1 digit",
					"event": [
						{
							"listen": "test",
							"script": {
								"exec": [
									"//validate status code\r",
									"pm.test(\"validate status code is 200\", function(){\r",
									"pm.response.to.have.status(200);\r",
									"});\r",
									"\r",
									"//extract response body\r",
									"var responseBody=pm.response.text()\r",
									"console.log(responseBody);\r",
									"\r",
									"//validate response body\r",
									"pm.test(\"validate responsebody\", function(){\r",
									"    pm.expect(responseBody).to.include(\"<m:NumberToWordsResult>ten </m:NumberToWordsResult>\")\r",
									"})\r",
									""
								],
								"type": "text/javascript"
							}
						}
					],
					"request": {
						"method": "POST",
						"header": [
							{
								"key": "Content-Type",
								"value": "text/xml; charset=utf-8"
							}
						],
						"body": {
							"mode": "raw",
							"raw": "<soap:Envelope xmlns:soap=\"http://schemas.xmlsoap.org/soap/envelope/\">\n  <soap:Body>\n    <NumberToWords xmlns=\"http://www.dataaccess.com/webservicesserver/\">\n      <ubiNum>1</ubiNum>\n    </NumberToWords>\n  </soap:Body>\n</soap:Envelope>",
							"options": {
								"raw": {
									"language": "xml"
								}
							}
						},
						"url": {
							"raw": "{{NumberConversionSoapBaseUrl}}/webservicesserver/NumberConversion.wso",
							"host": [
								"{{NumberConversionSoapBaseUrl}}"
							],
							"path": [
								"webservicesserver",
								"NumberConversion.wso"
							]
						},
						"description": "Returns the word corresponding to the positive number passed as parameter. Limited to quadrillions."
					},
					"response": []
				},
				{
					"name": "NumberToWords 2 digit",
					"event": [
						{
							"listen": "test",
							"script": {
								"exec": [
									"pm.test(\"Status code is 200\", function () {\r",
									"    pm.response.to.have.status(200);\r",
									"});\r",
									"\r",
									"var responseBody = pm.response.text();\r",
									"console.log();\r",
									"\r",
									"pm.test(\"Validate responsebody\", function(){\r",
									"    pm.expect(responseBody).to.include(\"<m:NumberToWordsResult>ten </m:NumberToWordsResult>\");\r",
									"})"
								],
								"type": "text/javascript"
							}
						}
					],
					"request": {
						"method": "POST",
						"header": [
							{
								"key": "Content-Type",
								"value": "text/xml; charset=utf-8"
							}
						],
						"body": {
							"mode": "raw",
							"raw": "<soap:Envelope xmlns:soap=\"http://schemas.xmlsoap.org/soap/envelope/\">\n  <soap:Body>\n    <NumberToWords xmlns=\"http://www.dataaccess.com/webservicesserver/\">\n      <ubiNum>10</ubiNum>\n    </NumberToWords>\n  </soap:Body>\n</soap:Envelope>",
							"options": {
								"raw": {
									"language": "xml"
								}
							}
						},
						"url": {
							"raw": "{{NumberConversionSoapBaseUrl}}/webservicesserver/NumberConversion.wso",
							"host": [
								"{{NumberConversionSoapBaseUrl}}"
							],
							"path": [
								"webservicesserver",
								"NumberConversion.wso"
							]
						},
						"description": "Returns the word corresponding to the positive number passed as parameter. Limited to quadrillions."
					},
					"response": []
				},
				{
					"name": "NumberToWords 4 digit",
					"event": [
						{
							"listen": "test",
							"script": {
								"exec": [
									"pm.test(\"Status code is 200\", function () {\r",
									"    pm.response.to.have.status(200);\r",
									"});\r",
									"\r",
									"//extract responsebody\r",
									"var responseBody=pm.response.text();\r",
									"console.log();\r",
									"\r",
									"//validate response body\r",
									"pm.test(\"Validate responseBody\", function(){\r",
									"    pm.expect(responseBody).to.include(\"<m:NumberToWordsResult>one thousand fifty four </m:NumberToWordsResult>\");\r",
									"})"
								],
								"type": "text/javascript"
							}
						}
					],
					"request": {
						"method": "POST",
						"header": [
							{
								"key": "Content-Type",
								"value": "text/xml; charset=utf-8"
							}
						],
						"body": {
							"mode": "raw",
							"raw": "<soap:Envelope xmlns:soap=\"http://schemas.xmlsoap.org/soap/envelope/\">\n  <soap:Body>\n    <NumberToWords xmlns=\"http://www.dataaccess.com/webservicesserver/\">\n      <ubiNum>1054</ubiNum>\n    </NumberToWords>\n  </soap:Body>\n</soap:Envelope>",
							"options": {
								"raw": {
									"language": "xml"
								}
							}
						},
						"url": {
							"raw": "{{NumberConversionSoapBaseUrl}}/webservicesserver/NumberConversion.wso",
							"host": [
								"{{NumberConversionSoapBaseUrl}}"
							],
							"path": [
								"webservicesserver",
								"NumberConversion.wso"
							]
						},
						"description": "Returns the word corresponding to the positive number passed as parameter. Limited to quadrillions."
					},
					"response": []
				},
				{
					"name": "NumberToWords decimal",
					"event": [
						{
							"listen": "test",
							"script": {
								"exec": [
									"pm.test(\"Validate status code is 200\", function(){\r",
									"    pm.response.to.have.status(200);\r",
									"});\r",
									"\r",
									"//extract responsebody\r",
									"var responseBody = pm.response.text();\r",
									"console.log();\r",
									"\r",
									"//validate response body\r",
									"pm.test(\"validate response body\", function(){\r",
									"    pm.expect(responseBody).to.include(\"<m:NumberToWordsResult>one hundred and twenty four </m:NumberToWordsResult>\");\r",
									"})"
								],
								"type": "text/javascript"
							}
						}
					],
					"request": {
						"method": "POST",
						"header": [
							{
								"key": "Content-Type",
								"value": "text/xml; charset=utf-8"
							}
						],
						"body": {
							"mode": "raw",
							"raw": "<soap:Envelope xmlns:soap=\"http://schemas.xmlsoap.org/soap/envelope/\">\n  <soap:Body>\n    <NumberToWords xmlns=\"http://www.dataaccess.com/webservicesserver/\">\n      <ubiNum>124.20</ubiNum>\n    </NumberToWords>\n  </soap:Body>\n</soap:Envelope>",
							"options": {
								"raw": {
									"language": "xml"
								}
							}
						},
						"url": {
							"raw": "{{NumberConversionSoapBaseUrl}}/webservicesserver/NumberConversion.wso",
							"host": [
								"{{NumberConversionSoapBaseUrl}}"
							],
							"path": [
								"webservicesserver",
								"NumberConversion.wso"
							]
						},
						"description": "Returns the word corresponding to the positive number passed as parameter. Limited to quadrillions."
					},
					"response": []
				},
				{
					"name": "NumberToWords negative",
					"event": [
						{
							"listen": "test",
							"script": {
								"exec": [
									"// status code validation\r",
									"pm.test(\"Status code is 200\", function () {\r",
									"    pm.response.to.have.status(200);\r",
									"});\r",
									"\r",
									"//extract response body\r",
									"\r",
									"var responseBody = pm.response.text();\r",
									"console.log(responseBody);\r",
									"\r",
									"//validate responsebody\r",
									"\r",
									"pm.test(\"Validate responsebody\", function () {\r",
									"    pm.expect(responseBody).to.include(\"<m:NumberToWordsResult>number too large</m:NumberToWordsResult>\")\r",
									"})"
								],
								"type": "text/javascript"
							}
						}
					],
					"request": {
						"method": "POST",
						"header": [
							{
								"key": "Content-Type",
								"value": "text/xml; charset=utf-8"
							}
						],
						"body": {
							"mode": "raw",
							"raw": "<soap:Envelope xmlns:soap=\"http://schemas.xmlsoap.org/soap/envelope/\">\n  <soap:Body>\n    <NumberToWords xmlns=\"http://www.dataaccess.com/webservicesserver/\">\n      <ubiNum>-10</ubiNum>\n    </NumberToWords>\n  </soap:Body>\n</soap:Envelope>",
							"options": {
								"raw": {
									"language": "xml"
								}
							}
						},
						"url": {
							"raw": "{{NumberConversionSoapBaseUrl}}/webservicesserver/NumberConversion.wso",
							"host": [
								"{{NumberConversionSoapBaseUrl}}"
							],
							"path": [
								"webservicesserver",
								"NumberConversion.wso"
							]
						},
						"description": "Returns the word corresponding to the positive number passed as parameter. Limited to quadrillions."
					},
					"response": []
				},
				{
					"name": "NumberToWords million",
					"event": [
						{
							"listen": "test",
							"script": {
								"exec": [
									"// status code validation\r",
									"pm.test(\"Status code is 200\", function () {\r",
									"    pm.response.to.have.status(200);\r",
									"});\r",
									"\r",
									"//extract response body\r",
									"\r",
									"var responseBody = pm.response.text();\r",
									"console.log(responseBody);\r",
									"\r",
									"//validate responsebody\r",
									"\r",
									"pm.test(\"Validate responsebody\", function () {\r",
									"    pm.expect(responseBody).to.include(\"<m:NumberToWordsResult>one million</m:NumberToWordsResult>\");\r",
									"})"
								],
								"type": "text/javascript"
							}
						}
					],
					"request": {
						"method": "POST",
						"header": [
							{
								"key": "Content-Type",
								"value": "text/xml; charset=utf-8"
							}
						],
						"body": {
							"mode": "raw",
							"raw": "<soap:Envelope xmlns:soap=\"http://schemas.xmlsoap.org/soap/envelope/\">\n  <soap:Body>\n    <NumberToWords xmlns=\"http://www.dataaccess.com/webservicesserver/\">\n      <ubiNum>1000000</ubiNum>\n    </NumberToWords>\n  </soap:Body>\n</soap:Envelope>",
							"options": {
								"raw": {
									"language": "xml"
								}
							}
						},
						"url": {
							"raw": "{{NumberConversionSoapBaseUrl}}/webservicesserver/NumberConversion.wso",
							"host": [
								"{{NumberConversionSoapBaseUrl}}"
							],
							"path": [
								"webservicesserver",
								"NumberConversion.wso"
							]
						},
						"description": "Returns the word corresponding to the positive number passed as parameter. Limited to quadrillions."
					},
					"response": []
				}
			],
			"description": "The Number Conversion Web Service, implemented with Visual DataFlex, provides functions that convert numbers into words or dollar amounts."
		},
		{
			"name": "NumberConversionNumberTo Dolllar",
			"item": [
				{
					"name": "NumberToDollars 1 digit",
					"event": [
						{
							"listen": "test",
							"script": {
								"exec": [
									"// status code validation\r",
									"pm.test(\"Status code is 200\", function () {\r",
									"    pm.response.to.have.status(200);\r",
									"});\r",
									"\r",
									"//extract response body\r",
									"\r",
									"var responseBody = pm.response.text();\r",
									"console.log(responseBody);\r",
									"\r",
									"//validate responsebody\r",
									"\r",
									"pm.test(\"Validate responsebody\", function () {\r",
									"    pm.expect(responseBody).to.include(\"<m:NumberToDollarsResult>one dollar</m:NumberToDollarsResult>\");\r",
									"})"
								],
								"type": "text/javascript"
							}
						}
					],
					"request": {
						"method": "POST",
						"header": [
							{
								"key": "Content-Type",
								"value": "text/xml; charset=utf-8"
							}
						],
						"body": {
							"mode": "raw",
							"raw": "<soap:Envelope xmlns:soap=\"http://schemas.xmlsoap.org/soap/envelope/\">\n  <soap:Body>\n    <NumberToDollars xmlns=\"http://www.dataaccess.com/webservicesserver/\">\n      <dNum>1</dNum>\n    </NumberToDollars>\n  </soap:Body>\n</soap:Envelope>\n",
							"options": {
								"raw": {
									"language": "xml"
								}
							}
						},
						"url": {
							"raw": "{{NumberConversionSoapBaseUrl}}/webservicesserver/NumberConversion.wso",
							"host": [
								"{{NumberConversionSoapBaseUrl}}"
							],
							"path": [
								"webservicesserver",
								"NumberConversion.wso"
							]
						},
						"description": "Returns the non-zero dollar amount of the passed number."
					},
					"response": []
				},
				{
					"name": "NumberToDollars 2 digit",
					"event": [
						{
							"listen": "test",
							"script": {
								"exec": [
									"// status code validation\r",
									"pm.test(\"Status code is 200\", function () {\r",
									"    pm.response.to.have.status(200);\r",
									"});\r",
									"\r",
									"//extract response body\r",
									"\r",
									"var responseBody = pm.response.text();\r",
									"console.log(responseBody);\r",
									"\r",
									"//validate responsebody\r",
									"\r",
									"pm.test(\"Validate responsebody\", function () {\r",
									"    pm.expect(responseBody).to.include(\"<m:NumberToDollarsResult>ten dollars</m:NumberToDollarsResult>\");\r",
									"})"
								],
								"type": "text/javascript"
							}
						}
					],
					"request": {
						"method": "POST",
						"header": [
							{
								"key": "Content-Type",
								"value": "text/xml; charset=utf-8"
							}
						],
						"body": {
							"mode": "raw",
							"raw": "<soap:Envelope xmlns:soap=\"http://schemas.xmlsoap.org/soap/envelope/\">\n  <soap:Body>\n    <NumberToDollars xmlns=\"http://www.dataaccess.com/webservicesserver/\">\n      <dNum>10</dNum>\n    </NumberToDollars>\n  </soap:Body>\n</soap:Envelope>\n",
							"options": {
								"raw": {
									"language": "xml"
								}
							}
						},
						"url": {
							"raw": "{{NumberConversionSoapBaseUrl}}/webservicesserver/NumberConversion.wso",
							"host": [
								"{{NumberConversionSoapBaseUrl}}"
							],
							"path": [
								"webservicesserver",
								"NumberConversion.wso"
							]
						},
						"description": "Returns the non-zero dollar amount of the passed number."
					},
					"response": []
				},
				{
					"name": "NumberToDollars 3 digit",
					"event": [
						{
							"listen": "test",
							"script": {
								"exec": [
									"// status code validation\r",
									"pm.test(\"Status code is 200\", function () {\r",
									"    pm.response.to.have.status(200);\r",
									"});\r",
									"\r",
									"//extract response body\r",
									"\r",
									"var responseBody = pm.response.text();\r",
									"console.log(responseBody);\r",
									"\r",
									"//validate responsebody\r",
									"\r",
									"pm.test(\"Validate responsebody\", function () {\r",
									"    pm.expect(responseBody).to.include(\"<m:NumberToDollarsResult>one hundred dollars</m:NumberToDollarsResult>\");\r",
									"})"
								],
								"type": "text/javascript"
							}
						}
					],
					"request": {
						"method": "POST",
						"header": [
							{
								"key": "Content-Type",
								"value": "text/xml; charset=utf-8"
							}
						],
						"body": {
							"mode": "raw",
							"raw": "<soap:Envelope xmlns:soap=\"http://schemas.xmlsoap.org/soap/envelope/\">\n  <soap:Body>\n    <NumberToDollars xmlns=\"http://www.dataaccess.com/webservicesserver/\">\n      <dNum>100</dNum>\n    </NumberToDollars>\n  </soap:Body>\n</soap:Envelope>\n",
							"options": {
								"raw": {
									"language": "xml"
								}
							}
						},
						"url": {
							"raw": "{{NumberConversionSoapBaseUrl}}/webservicesserver/NumberConversion.wso",
							"host": [
								"{{NumberConversionSoapBaseUrl}}"
							],
							"path": [
								"webservicesserver",
								"NumberConversion.wso"
							]
						},
						"description": "Returns the non-zero dollar amount of the passed number."
					},
					"response": []
				},
				{
					"name": "NumberToDollars million",
					"event": [
						{
							"listen": "test",
							"script": {
								"exec": [
									"// status code validation\r",
									"pm.test(\"Status code is 200\", function () {\r",
									"    pm.response.to.have.status(200);\r",
									"});\r",
									"\r",
									"//extract response body\r",
									"\r",
									"var responseBody = pm.response.text();\r",
									"console.log(responseBody);\r",
									"\r",
									"//validate responsebody\r",
									"\r",
									"pm.test(\"Validate responsebody\", function () {\r",
									"    pm.expect(responseBody).to.include(\"<m:NumberToDollarsResult>two million dollars</m:NumberToDollarsResult>\");\r",
									"})"
								],
								"type": "text/javascript"
							}
						}
					],
					"request": {
						"method": "POST",
						"header": [
							{
								"key": "Content-Type",
								"value": "text/xml; charset=utf-8"
							}
						],
						"body": {
							"mode": "raw",
							"raw": "<soap:Envelope xmlns:soap=\"http://schemas.xmlsoap.org/soap/envelope/\">\n  <soap:Body>\n    <NumberToDollars xmlns=\"http://www.dataaccess.com/webservicesserver/\">\n      <dNum>2000000</dNum>\n    </NumberToDollars>\n  </soap:Body>\n</soap:Envelope>\n",
							"options": {
								"raw": {
									"language": "xml"
								}
							}
						},
						"url": {
							"raw": "{{NumberConversionSoapBaseUrl}}/webservicesserver/NumberConversion.wso",
							"host": [
								"{{NumberConversionSoapBaseUrl}}"
							],
							"path": [
								"webservicesserver",
								"NumberConversion.wso"
							]
						},
						"description": "Returns the non-zero dollar amount of the passed number."
					},
					"response": []
				},
				{
					"name": "NumberToDollars decimal",
					"event": [
						{
							"listen": "test",
							"script": {
								"exec": [
									"// status code validation\r",
									"pm.test(\"Status code is 200\", function () {\r",
									"    pm.response.to.have.status(200);\r",
									"});\r",
									"\r",
									"//extract response body\r",
									"\r",
									"var responseBody = pm.response.text();\r",
									"console.log(responseBody);\r",
									"\r",
									"//validate responsebody\r",
									"\r",
									"pm.test(\"Validate responsebody\", function () {\r",
									"    pm.expect(responseBody).to.include(\"<m:NumberToDollarsResult>one hundred and fifty two dollars and twenty five cents</m:NumberToDollarsResult>\");\r",
									"})"
								],
								"type": "text/javascript"
							}
						}
					],
					"request": {
						"method": "POST",
						"header": [
							{
								"key": "Content-Type",
								"value": "text/xml; charset=utf-8"
							}
						],
						"body": {
							"mode": "raw",
							"raw": "<soap:Envelope xmlns:soap=\"http://schemas.xmlsoap.org/soap/envelope/\">\n  <soap:Body>\n    <NumberToDollars xmlns=\"http://www.dataaccess.com/webservicesserver/\">\n      <dNum>152.25</dNum>\n    </NumberToDollars>\n  </soap:Body>\n</soap:Envelope>\n",
							"options": {
								"raw": {
									"language": "xml"
								}
							}
						},
						"url": {
							"raw": "{{NumberConversionSoapBaseUrl}}/webservicesserver/NumberConversion.wso",
							"host": [
								"{{NumberConversionSoapBaseUrl}}"
							],
							"path": [
								"webservicesserver",
								"NumberConversion.wso"
							]
						},
						"description": "Returns the non-zero dollar amount of the passed number."
					},
					"response": []
				},
				{
					"name": "NumberToDollars negative",
					"event": [
						{
							"listen": "test",
							"script": {
								"exec": [
									"// status code validation\r",
									"pm.test(\"Status code is 200\", function () {\r",
									"    pm.response.to.have.status(200);\r",
									"});\r",
									"\r",
									"//extract response body\r",
									"\r",
									"var responseBody = pm.response.text();\r",
									"console.log(responseBody);\r",
									"\r",
									"//validate responsebody\r",
									"\r",
									"pm.test(\"Validate responsebody\", function () {\r",
									"    pm.expect(responseBody).to.include(\"<m:NumberToDollarsResult>number too large dollars and number too large cents</m:NumberToDollarsResult>\");\r",
									"})"
								],
								"type": "text/javascript"
							}
						}
					],
					"request": {
						"method": "POST",
						"header": [
							{
								"key": "Content-Type",
								"value": "text/xml; charset=utf-8"
							}
						],
						"body": {
							"mode": "raw",
							"raw": "<soap:Envelope xmlns:soap=\"http://schemas.xmlsoap.org/soap/envelope/\">\n  <soap:Body>\n    <NumberToDollars xmlns=\"http://www.dataaccess.com/webservicesserver/\">\n      <dNum>-254</dNum>\n    </NumberToDollars>\n  </soap:Body>\n</soap:Envelope>\n",
							"options": {
								"raw": {
									"language": "xml"
								}
							}
						},
						"url": {
							"raw": "{{NumberConversionSoapBaseUrl}}/webservicesserver/NumberConversion.wso",
							"host": [
								"{{NumberConversionSoapBaseUrl}}"
							],
							"path": [
								"webservicesserver",
								"NumberConversion.wso"
							]
						},
						"description": "Returns the non-zero dollar amount of the passed number."
					},
					"response": []
				}
			],
			"description": "The Number Conversion Web Service, implemented with Visual DataFlex, provides functions that convert numbers into words or dollar amounts."
		}
	],
	"variable": [
		{
			"key": "NumberConversionSoapBaseUrl",
			"value": "https://www.dataaccess.com",
			"type": "any"
		},
		{
			"key": "NumberConversionSoap12BaseUrl",
			"value": "https://www.dataaccess.com",
			"type": "any"
		}
	]
}